<?xml version="1.0" encoding="utf-8"?>
<!-- Generator: Adobe Illustrator 16.0.0, SVG Export Plug-In . SVG Version: 6.00 Build 0)  -->
<!DOCTYPE svg PUBLIC "-//W3C//DTD SVG 1.1//EN" "http://www.w3.org/Graphics/SVG/1.1/DTD/svg11.dtd">
<svg version="1.1" id="Слой_1" xmlns="http://www.w3.org/2000/svg" xmlns:xlink="http://www.w3.org/1999/xlink" x="0px" y="0px"
	 width="14px" height="14px" viewBox="0 0 14 14" enable-background="new 0 0 14 14" xml:space="preserve">
<path fill-rule="evenodd" clip-rule="evenodd" fill="#459AD4" d="M13.821,7.499l-3.288,3.809c-0.119,0.138-0.275,0.207-0.431,0.207
	s-0.312-0.069-0.431-0.207c-0.238-0.275-0.238-0.722,0-0.997l2.249-2.605H0.609C0.272,7.705,0,7.389,0,7
	C0,6.61,0.272,6.294,0.609,6.294h11.312L9.672,3.69c-0.238-0.275-0.238-0.722,0-0.998c0.238-0.276,0.624-0.276,0.861,0l3.288,3.809
	C14.059,6.776,14.059,7.223,13.821,7.499z"/>
</svg>
