<?xml version="1.0" encoding="utf-8"?>
<!-- Generator: Adobe Illustrator 16.0.0, SVG Export Plug-In . SVG Version: 6.00 Build 0)  -->
<!DOCTYPE svg PUBLIC "-//W3C//DTD SVG 1.1//EN" "http://www.w3.org/Graphics/SVG/1.1/DTD/svg11.dtd">
<svg version="1.1" id="Слой_1" xmlns="http://www.w3.org/2000/svg" xmlns:xlink="http://www.w3.org/1999/xlink" x="0px" y="0px"
	 width="14px" height="14px" viewBox="0 0 14 14" enable-background="new 0 0 14 14" xml:space="preserve">
<path fill-rule="evenodd" clip-rule="evenodd" fill="#459AD4" d="M6.501,13.822l-3.809-3.288c-0.276-0.238-0.276-0.624,0-0.861
	c0.275-0.238,0.722-0.238,0.998,0l2.604,2.249V0.61C6.294,0.273,6.61,0,7,0c0.39,0,0.706,0.272,0.706,0.609v11.312l2.605-2.249
	c0.275-0.238,0.722-0.238,0.997,0c0.138,0.119,0.207,0.275,0.207,0.431s-0.069,0.312-0.207,0.431l-3.809,3.288
	C7.223,14.06,6.776,14.06,6.501,13.822z"/>
</svg>
