<?xml version="1.0" encoding="utf-8"?>
<!-- Generator: Adobe Illustrator 16.0.0, SVG Export Plug-In . SVG Version: 6.00 Build 0)  -->
<!DOCTYPE svg PUBLIC "-//W3C//DTD SVG 1.1//EN" "http://www.w3.org/Graphics/SVG/1.1/DTD/svg11.dtd">
<svg version="1.1" id="Слой_1" xmlns="http://www.w3.org/2000/svg" xmlns:xlink="http://www.w3.org/1999/xlink" x="0px" y="0px"
	 width="16.006px" height="16.002px" viewBox="0 0 16.006 16.002" enable-background="new 0 0 16.006 16.002" xml:space="preserve">
<g>
	<g>
		<path fill="#DADADA" d="M15.537,6.271h-1.218c-0.063-0.23-0.141-0.462-0.237-0.704l-0.071-0.171
			c-0.094-0.218-0.201-0.432-0.318-0.638l0.861-0.861c0.088-0.088,0.137-0.206,0.137-0.331s-0.049-0.243-0.137-0.331l-1.783-1.783
			c-0.179-0.177-0.486-0.177-0.664,0l-0.859,0.861c-0.21-0.119-0.432-0.229-0.678-0.335L10.41,1.913
			C10.19,1.826,9.963,1.75,9.733,1.687V0.468C9.731,0.21,9.522,0,9.265,0H6.741C6.482,0,6.272,0.21,6.272,0.468v1.217
			c-0.23,0.063-0.457,0.139-0.677,0.226L5.397,1.994c-0.216,0.093-0.431,0.2-0.638,0.319L3.897,1.452
			c-0.177-0.177-0.485-0.177-0.662,0L1.452,3.235C1.363,3.324,1.314,3.441,1.314,3.566s0.049,0.243,0.138,0.331l0.86,0.861
			C2.193,4.968,2.083,5.19,1.975,5.442L1.911,5.595c-0.087,0.22-0.162,0.446-0.226,0.677H0.468C0.21,6.271,0,6.482,0,6.74v2.522
			c0,0.258,0.21,0.467,0.468,0.467h1.218c0.063,0.231,0.142,0.465,0.238,0.709l0.07,0.168c0.095,0.218,0.201,0.432,0.318,0.637
			l-0.86,0.861c-0.184,0.183-0.184,0.479,0,0.662l1.783,1.782c0.177,0.177,0.485,0.179,0.662,0l0.861-0.86
			c0.207,0.119,0.42,0.226,0.636,0.317l0.146,0.062l0.055,0.022c0.22,0.086,0.446,0.162,0.677,0.226v1.218
			c0,0.259,0.21,0.469,0.469,0.469h2.521c0.26,0,0.469-0.21,0.469-0.469v-1.218c0.23-0.063,0.463-0.142,0.703-0.236l0.172-0.07
			c0.219-0.095,0.433-0.201,0.64-0.32l0.86,0.861c0.177,0.178,0.484,0.178,0.662,0l1.785-1.783c0.182-0.182,0.182-0.479,0-0.662
			l-0.861-0.86c0.117-0.207,0.228-0.427,0.332-0.67l-0.254-0.104l0.281,0.038l0.041-0.101c0.088-0.221,0.163-0.447,0.227-0.676
			h1.218c0.258,0,0.469-0.211,0.469-0.469V6.74C16.006,6.482,15.795,6.271,15.537,6.271z M7.982,11.981
			c-2.206,0-4.001-1.785-4.001-3.98c0-2.194,1.795-3.979,4.001-3.979c2.207,0,4.001,1.785,4.001,3.979
			C11.983,10.196,10.188,11.981,7.982,11.981z"/>
	</g>
</g>
</svg>
