<?xml version="1.0" encoding="utf-8"?>
<!-- Generator: Adobe Illustrator 16.0.0, SVG Export Plug-In . SVG Version: 6.00 Build 0)  -->
<!DOCTYPE svg PUBLIC "-//W3C//DTD SVG 1.1//EN" "http://www.w3.org/Graphics/SVG/1.1/DTD/svg11.dtd">
<svg version="1.1" id="Слой_1" xmlns="http://www.w3.org/2000/svg" xmlns:xlink="http://www.w3.org/1999/xlink" x="0px" y="0px"
	 width="32px" height="32px" viewBox="0 0 32 32" enable-background="new 0 0 32 32" xml:space="preserve">
<g>
	<g>
		<path fill-rule="evenodd" clip-rule="evenodd" fill="#FFFFFF" d="M-13.341,25h-24c-0.553,0-1,0.447-1,1s0.447,1,1,1h7l-2,5h3l2-5
			h4l2,5h3l-2-5h7c0.552,0,1-0.447,1-1S-12.79,25-13.341,25z M-22.341,2h-2V1c0-0.553-0.448-1-1-1c-0.553,0-1,0.447-1,1v1h-2v2h6V2z
			 M-14.341,5h-21c-1.104,0-2,0.895-2,2v15c0,1.104,0.896,2,2,2h21c1.104,0,2-0.896,2-2V7C-12.341,5.895-13.237,5-14.341,5z
			 M-15.21,15.29l-2.007-2.007l-5.338,5.338l0.035,0.035l-1.414,1.414l-4.496-4.495l-5.496,5.495l-1.414-1.414l7.071-7.071
			L-26.856,14l-0.161,0.161l3.047,3.046l5.338-5.339l-2.202-2.202l6.348-0.724L-15.21,15.29z"/>
	</g>
</g>
<g>
	<g>
		<path fill-rule="evenodd" clip-rule="evenodd" fill="#FFFFFF" d="M19,2h-2V1c0-0.553-0.449-1-1-1c-0.553,0-1,0.447-1,1v1h-2v2h6V2
			z M28,25H4c-0.553,0-1,0.448-1,1c0,0.552,0.447,1,1,1h7l-2,5h3l2-5h4l2,5h3l-2-5h7c0.551,0,1-0.448,1-1C29,25.448,28.551,25,28,25
			z M27,5H6C4.896,5,4,5.896,4,7v15c0,1.105,0.896,2,2,2h21c1.104,0,2-0.895,2-2V7C29,5.896,28.104,5,27,5z M19.901,9.333
			l0.75,0.751l-1.789,1.596c-0.164-0.204-0.35-0.39-0.555-0.555L19.901,9.333z M17.047,8l1.023,0.275l-0.752,2.277
			c-0.24-0.093-0.494-0.161-0.756-0.203L17.047,8z M14.935,8l0.484,2.349c-0.262,0.042-0.515,0.11-0.756,0.203l-0.753-2.277
			L14.935,8z M10.274,11.917l2.273,0.754c-0.093,0.242-0.161,0.495-0.202,0.758L10,12.942L10.274,11.917z M10,15.059l2.346-0.486
			c0.041,0.263,0.109,0.517,0.202,0.758l-2.273,0.754L10,15.059z M12.08,18.668l-0.75-0.751l1.791-1.596
			c0.164,0.204,0.351,0.39,0.554,0.555L12.08,18.668z M13.121,11.68l-1.791-1.596l0.75-0.751l1.594,1.792
			C13.471,11.29,13.285,11.476,13.121,11.68z M14.935,20l-1.024-0.274l0.753-2.277c0.241,0.093,0.494,0.162,0.756,0.203L14.935,20z
			 M26.045,19.987l-2.613,3.159c-0.186,0.226-0.52,0.254-0.744,0.063l-3.52-2.995l-1.621,1.96c-0.133,0.159-0.344,0.226-0.541,0.171
			c-0.199-0.054-0.35-0.22-0.387-0.425l-1.445-7.958c-0.028-0.156,0.014-0.317,0.114-0.438c0.101-0.122,0.249-0.191,0.405-0.19
			l3.926,0.03c-0.042-0.239-0.1-0.472-0.186-0.693l2.273-0.754l0.273,1.026l-2.039,0.423l3.73,0.029
			c0.127,0.001,0.246,0.048,0.34,0.127c0.057,0.05,0.105,0.113,0.139,0.186c0.088,0.189,0.061,0.411-0.072,0.57l-1.621,1.96
			l3.52,2.995C26.202,19.423,26.233,19.761,26.045,19.987z"/>
	</g>
</g>
<g>
	<g>
		<path fill-rule="evenodd" clip-rule="evenodd" fill="#FFFFFF" d="M69.355,25h-24c-0.553,0-1,0.448-1,1c0,0.552,0.447,1,1,1h7l-2,5
			h3l2-5h4l2,5h3l-2-5h7c0.552,0,1-0.448,1-1C70.355,25.447,69.907,25,69.355,25z M56.031,10.321c0.439,0,0.795-0.312,0.795-0.696
			c0-0.385-0.355-0.697-0.795-0.697c-0.438,0-0.794,0.312-0.794,0.697C55.237,10.009,55.593,10.321,56.031,10.321z M60.355,2h-2V1
			c0-0.553-0.448-1-1-1c-0.553,0-1,0.447-1,1v1h-2v2h6V2z M68.355,5h-21c-1.104,0-2,0.896-2,2v15c0,1.105,0.896,2,2,2h21
			c1.104,0,2-0.895,2-2V7C70.355,5.895,69.459,5,68.355,5z M67.355,21h-19V9.393C48.355,8.624,49.066,8,49.943,8h15.824
			c0.877,0,1.588,0.624,1.588,1.393V21z M53.384,10.321c0.438,0,0.794-0.312,0.794-0.696c0-0.385-0.355-0.697-0.794-0.697
			S52.59,9.24,52.59,9.625C52.59,10.009,52.946,10.321,53.384,10.321z M50.737,10.321c0.438,0,0.794-0.312,0.794-0.696
			c0-0.385-0.355-0.697-0.794-0.697s-0.794,0.312-0.794,0.697C49.943,10.009,50.298,10.321,50.737,10.321z M49.414,20.071h16.883
			V11.25H49.414V20.071z"/>
	</g>
</g>
<g>
	<g>
		<path fill-rule="evenodd" clip-rule="evenodd" fill="#FFFFFF" d="M110.476,25h-24c-0.553,0-1,0.448-1,1c0,0.552,0.447,1,1,1h7
			l-2,5h3l2-5h4l2,5h3l-2-5h7c0.552,0,1-0.447,1-1C111.476,25.448,111.028,25,110.476,25z M101.476,2h-2V1c0-0.553-0.448-1-1-1
			c-0.553,0-1,0.447-1,1v1h-2v2h6V2z M109.476,5h-21c-1.104,0-2,0.896-2,2v15c0,1.105,0.896,2,2,2h21c1.104,0,2-0.895,2-2V7
			C111.476,5.896,110.581,5,109.476,5z M95.203,17.392c-0.332,0.343-0.816,0.575-1.451,0.696v1.055
			c-0.15,0.037-0.305,0.055-0.461,0.055c-0.157,0-0.314-0.018-0.472-0.055v-0.964h-0.086c-0.235,0-0.446-0.006-0.632-0.018
			s-0.362-0.032-0.53-0.059s-0.334-0.062-0.498-0.104c-0.165-0.042-0.336-0.094-0.515-0.155c0.021-0.176,0.061-0.353,0.118-0.532
			c0.057-0.179,0.125-0.365,0.203-0.559c0.3,0.103,0.582,0.174,0.847,0.213c0.264,0.04,0.546,0.059,0.847,0.059
			c0.45,0,0.798-0.065,1.044-0.195c0.247-0.13,0.37-0.341,0.37-0.632c0-0.146-0.034-0.265-0.102-0.359
			c-0.068-0.094-0.154-0.171-0.258-0.231s-0.22-0.112-0.348-0.155c-0.129-0.042-0.254-0.088-0.375-0.136l-0.568-0.209
			c-0.235-0.084-0.45-0.174-0.643-0.268s-0.359-0.206-0.498-0.336c-0.14-0.13-0.247-0.283-0.321-0.459
			c-0.075-0.176-0.113-0.391-0.113-0.646c0-0.545,0.183-0.976,0.547-1.291c0.364-0.315,0.868-0.506,1.511-0.573v-0.964
			c0.149-0.036,0.304-0.054,0.461-0.054c0.149,0,0.307,0.018,0.472,0.054v0.937c0.285,0.018,0.561,0.053,0.824,0.105
			c0.265,0.051,0.543,0.12,0.836,0.204c-0.043,0.352-0.157,0.697-0.343,1.037c-0.107-0.036-0.216-0.073-0.327-0.109
			c-0.11-0.037-0.229-0.067-0.354-0.091c-0.125-0.024-0.266-0.044-0.423-0.06c-0.157-0.015-0.336-0.022-0.536-0.022
			c-0.121,0-0.244,0.008-0.369,0.022c-0.125,0.016-0.237,0.047-0.338,0.096c-0.1,0.049-0.182,0.117-0.246,0.205
			s-0.097,0.202-0.097,0.341c0,0.122,0.025,0.225,0.075,0.309c0.05,0.085,0.118,0.156,0.203,0.214
			c0.086,0.058,0.183,0.107,0.29,0.15c0.106,0.042,0.214,0.082,0.321,0.118l0.643,0.228c0.271,0.097,0.518,0.194,0.739,0.291
			s0.409,0.213,0.563,0.35c0.153,0.136,0.273,0.303,0.359,0.5c0.085,0.197,0.128,0.444,0.128,0.741
			C95.701,16.63,95.535,17.05,95.203,17.392z M106.869,19.8h-7.214c-0.296,0-0.536-0.239-0.536-0.533
			c0-0.295,0.24-0.534,0.536-0.534h7.214c0.296,0,0.536,0.239,0.536,0.534C107.405,19.562,107.165,19.8,106.869,19.8z
			 M106.869,17.134h-8.821c-0.296,0-0.536-0.239-0.536-0.534c0-0.294,0.24-0.533,0.536-0.533h8.821c0.296,0,0.536,0.239,0.536,0.533
			C107.405,16.895,107.165,17.134,106.869,17.134z M106.869,14.467h-8.821c-0.296,0-0.536-0.239-0.536-0.533s0.24-0.533,0.536-0.533
			h8.821c0.296,0,0.536,0.239,0.536,0.533S107.165,14.467,106.869,14.467z M106.869,11.8h-8.821c-0.296,0-0.536-0.239-0.536-0.533
			c0-0.295,0.24-0.533,0.536-0.533h8.821c0.296,0,0.536,0.238,0.536,0.533C107.405,11.562,107.165,11.8,106.869,11.8z"/>
	</g>
</g>
</svg>
