<?xml version="1.0" encoding="utf-8"?>
<!-- Generator: Adobe Illustrator 16.0.0, SVG Export Plug-In . SVG Version: 6.00 Build 0)  -->
<!DOCTYPE svg PUBLIC "-//W3C//DTD SVG 1.1//EN" "http://www.w3.org/Graphics/SVG/1.1/DTD/svg11.dtd">
<svg version="1.1" id="Слой_1" xmlns="http://www.w3.org/2000/svg" xmlns:xlink="http://www.w3.org/1999/xlink" x="0px" y="0px"
	 width="56px" height="11px" viewBox="0 0 56 11" enable-background="new 0 0 56 11" xml:space="preserve">
<g>
	<g>
		<path fill="#FFFFFF" d="M3.169,2.167C2.294,2.551,0.483,4.242-0.237,5.513c0.72,1.271,2.531,2.962,3.406,3.346l0.528-0.456
			C3.326,7.456,2.51,6.365,1.766,5.513c0.744-0.839,1.56-1.955,1.932-2.902L3.169,2.167z M10.538-0.056L7.311,9.646
			c-0.228,0.672,0.049,1.199,0.049,1.199l0.791,0.132l3.227-9.69c0.228-0.696-0.048-1.211-0.048-1.211L10.538-0.056z M52.832,2.167
			l-0.528,0.444c0.36,0.948,1.188,2.063,1.919,2.902c-0.731,0.852-1.559,1.943-1.919,2.89l0.528,0.456
			c0.875-0.384,2.687-2.075,3.405-3.346C55.518,4.242,53.707,2.551,52.832,2.167z"/>
	</g>
</g>
<g>
	<path fill="#FFFFFF" d="M16.693,8.916c-0.417,0-0.798-0.069-1.144-0.206s-0.635-0.348-0.869-0.632h-0.07
		c0.047,0.333,0.07,0.648,0.07,0.946v2.348h-0.971V3.108h0.79l0.134,0.781h0.047c0.25-0.313,0.54-0.538,0.872-0.677
		c0.331-0.139,0.711-0.208,1.141-0.208c0.851,0,1.507,0.258,1.969,0.775c0.462,0.517,0.693,1.242,0.693,2.175
		c0,0.937-0.235,1.665-0.705,2.183C18.18,8.656,17.528,8.916,16.693,8.916z M16.553,3.738c-0.655,0-1.129,0.161-1.422,0.484
		c-0.292,0.322-0.443,0.836-0.451,1.54v0.192c0,0.802,0.15,1.375,0.451,1.72c0.3,0.345,0.782,0.518,1.445,0.518
		c0.554,0,0.988-0.199,1.302-0.599s0.471-0.949,0.471-1.649c0-0.711-0.157-1.257-0.471-1.637
		C17.564,3.928,17.122,3.738,16.553,3.738z"/>
	<path fill="#FFFFFF" d="M23.977,3.004c0.285,0,0.541,0.021,0.767,0.063l-0.134,0.801c-0.266-0.052-0.5-0.078-0.702-0.078
		c-0.519,0-0.963,0.188-1.331,0.562c-0.369,0.375-0.553,0.841-0.553,1.4v3.06h-0.971V3.108h0.802l0.111,1.056h0.047
		c0.238-0.371,0.525-0.657,0.86-0.858S23.576,3.004,23.977,3.004z"/>
	<path fill="#FFFFFF" d="M31.478,5.955c0,0.93-0.263,1.656-0.789,2.178c-0.527,0.521-1.254,0.783-2.183,0.783
		c-0.573,0-1.082-0.12-1.527-0.359s-0.788-0.583-1.03-1.03c-0.242-0.448-0.363-0.971-0.363-1.572c0-0.93,0.261-1.654,0.784-2.172
		c0.522-0.519,1.248-0.778,2.176-0.778c0.898,0,1.61,0.265,2.139,0.796C31.214,4.331,31.478,5.049,31.478,5.955z M26.593,5.955
		c0,0.729,0.164,1.284,0.492,1.666s0.809,0.572,1.445,0.572c0.636,0,1.119-0.19,1.449-0.57c0.329-0.379,0.494-0.936,0.494-1.667
		c0-0.725-0.165-1.275-0.494-1.652c-0.33-0.376-0.816-0.564-1.46-0.564c-0.636,0-1.115,0.186-1.439,0.557
		C26.754,4.666,26.593,5.219,26.593,5.955z"/>
	<path fill="#FFFFFF" d="M41.355,8.812v-3.71c0-0.455-0.109-0.795-0.328-1.022c-0.219-0.228-0.558-0.341-1.019-0.341
		c-0.604,0-1.051,0.154-1.34,0.463c-0.288,0.309-0.433,0.784-0.433,1.426v3.185h-0.971v-3.71c0-0.455-0.109-0.795-0.328-1.022
		c-0.219-0.228-0.56-0.341-1.024-0.341c-0.608,0-1.054,0.162-1.337,0.486c-0.282,0.324-0.424,0.856-0.424,1.595v2.992H33.18V3.108
		h0.79l0.158,0.781h0.047c0.184-0.278,0.441-0.495,0.775-0.651c0.333-0.156,0.707-0.234,1.12-0.234c1.003,0,1.658,0.323,1.966,0.968
		h0.047c0.191-0.298,0.469-0.534,0.831-0.708c0.363-0.173,0.776-0.26,1.24-0.26c0.726,0,1.269,0.166,1.63,0.497
		c0.36,0.331,0.541,0.861,0.541,1.589v3.721H41.355z"/>
	<path fill="#FFFFFF" d="M49.862,5.955c0,0.93-0.263,1.656-0.789,2.178c-0.527,0.521-1.255,0.783-2.183,0.783
		c-0.573,0-1.083-0.12-1.527-0.359s-0.788-0.583-1.03-1.03c-0.241-0.448-0.362-0.971-0.362-1.572c0-0.93,0.262-1.654,0.784-2.172
		s1.248-0.778,2.177-0.778c0.896,0,1.609,0.265,2.139,0.796C49.598,4.331,49.862,5.049,49.862,5.955z M44.977,5.955
		c0,0.729,0.163,1.284,0.491,1.666c0.327,0.382,0.81,0.572,1.445,0.572s1.118-0.19,1.448-0.57c0.329-0.379,0.494-0.936,0.494-1.667
		c0-0.725-0.165-1.275-0.494-1.652c-0.33-0.376-0.816-0.564-1.46-0.564c-0.636,0-1.116,0.186-1.439,0.557
		C45.138,4.666,44.977,5.219,44.977,5.955z"/>
</g>
</svg>
