<?xml version="1.0" encoding="utf-8"?>
<!-- Generator: Adobe Illustrator 16.0.0, SVG Export Plug-In . SVG Version: 6.00 Build 0)  -->
<!DOCTYPE svg PUBLIC "-//W3C//DTD SVG 1.1//EN" "http://www.w3.org/Graphics/SVG/1.1/DTD/svg11.dtd">
<svg version="1.1" id="Слой_1" xmlns="http://www.w3.org/2000/svg" xmlns:xlink="http://www.w3.org/1999/xlink" x="0px" y="0px"
	 width="24px" height="24px" viewBox="0 0 24 24" enable-background="new 0 0 24 24" xml:space="preserve">
<g>
	<g>
		<path fill="#436274" d="M21.055,0.998H2.951C1.321,0.998,0,2.278,0,3.858v11.921C0,17.359,1.373,19,3.003,19h2v5l5-5h11
			c1.63,0,3.003-1.641,3.003-3.221V3.858C24.006,2.278,22.685,0.998,21.055,0.998z M13.003,16h-2v-2h2V16z M13.003,11v1h-2v-1
			c0.199-2.5,3.042-2.439,3-4c0-0.882-0.688-1.309-1.442-1.309c-1.025,0-1.558,0.283-1.558,1.309h-2
			c0.042-2.066,1.156-3.216,3.247-3.251C14.973,3.702,16.012,5.893,16.003,7C15.981,9.76,13.245,9.251,13.003,11z"/>
	</g>
</g>
</svg>
