<?xml version="1.0" encoding="utf-8"?>
<!-- Generator: Adobe Illustrator 16.0.0, SVG Export Plug-In . SVG Version: 6.00 Build 0)  -->
<!DOCTYPE svg PUBLIC "-//W3C//DTD SVG 1.1//EN" "http://www.w3.org/Graphics/SVG/1.1/DTD/svg11.dtd">
<svg version="1.1" id="Слой_1" xmlns="http://www.w3.org/2000/svg" xmlns:xlink="http://www.w3.org/1999/xlink" x="0px" y="0px"
	 width="24px" height="24px" viewBox="0 0 24 24" enable-background="new 0 0 24 24" xml:space="preserve">
<g>
	<g>
		<path fill="#53C8FF" d="M18.553,15.684l-3.498-3.517L21.09,6.1l-3.012-3.005l-6.024,6.056L8.272,5.35
			c0.384-1.418,0.026-2.997-1.083-4.11c-1.178-1.185-2.883-1.516-4.359-1l0.098,0.225l2.324,2.337L2.783,5.284L0.459,2.946
			L0.234,2.849c-0.514,1.483-0.184,3.196,1,4.383c1.085,1.094,2.621,1.459,4.01,1.106l3.81,3.829l-6.421,6.455l1.027,0.104
			l0.18,1.715l1.727,0.201l0.097,0.967l6.391-6.426l3.524,3.543c-0.354,1.398,0.013,2.94,1.103,4.037
			c1.178,1.185,2.883,1.517,4.356,1l-0.099-0.227L18.616,21.2l2.47-2.482l2.325,2.341l0.226,0.098c0.512-1.486,0.186-3.197-1-4.385
			C21.529,15.657,19.962,15.299,18.553,15.684z M23.367,3.808c0.83-0.832,0.83-2.184,0-3.017c-0.828-0.833-2.172-0.833-3,0
			l-1.153,1.162l3.001,3.017L23.367,3.808z M2.799,21.49l-0.18-1.713l-1.027-0.105l-1.338,4.322l4.34-1.309l0.029-0.028
			l-0.098-0.968L2.799,21.49z"/>
	</g>
</g>
</svg>
