<?xml version="1.0" encoding="utf-8"?>
<!-- Generator: Adobe Illustrator 16.0.0, SVG Export Plug-In . SVG Version: 6.00 Build 0)  -->
<!DOCTYPE svg PUBLIC "-//W3C//DTD SVG 1.1//EN" "http://www.w3.org/Graphics/SVG/1.1/DTD/svg11.dtd">
<svg version="1.1" id="Слой_1" xmlns="http://www.w3.org/2000/svg" xmlns:xlink="http://www.w3.org/1999/xlink" x="0px" y="0px"
	 width="16px" height="16px" viewBox="0 0 16 16" enable-background="new 0 0 16 16" xml:space="preserve">
<g>
	<g>
		<path fill="#01A1EC" d="M11.733,2.133V1.067c0-0.635-0.469-1.065-1.214-1.065L5.333,0C4.588,0,4.267,0.432,4.267,1.067v1.066H0
			V3.2h1.067v11.733C1.067,15.568,1.389,16,2.133,16h11.733c0.745,0,1.068-0.454,1.067-1.066V3.2H16V2.133H11.733z M6.4,1.067h3.2
			c0.386,0,1.067,0.774,1.067,1.066H5.333C5.333,1.841,6.015,1.067,6.4,1.067z M13.866,13.866c0,0.66-0.514,1.067-1.066,1.067H3.2
			c-0.552,0-1.067-0.485-1.067-1.067V3.2h11.733V13.866z M8.533,5.333H7.467V12.8h1.066V5.333z M5.333,5.333H4.267V12.8h1.067V5.333
			z M11.733,5.333h-1.066V12.8h1.066V5.333z"/>
	</g>
</g>
</svg>
