<?xml version="1.0" encoding="utf-8"?>
<!-- Generator: Adobe Illustrator 16.0.0, SVG Export Plug-In . SVG Version: 6.00 Build 0)  -->
<!DOCTYPE svg PUBLIC "-//W3C//DTD SVG 1.1//EN" "http://www.w3.org/Graphics/SVG/1.1/DTD/svg11.dtd">
<svg version="1.1" id="Слой_1" xmlns="http://www.w3.org/2000/svg" xmlns:xlink="http://www.w3.org/1999/xlink" x="0px" y="0px"
	 width="22px" height="22px" viewBox="0 0 22 22" enable-background="new 0 0 22 22" xml:space="preserve">
<path fill-rule="evenodd" clip-rule="evenodd" fill="#656665" d="M22,8.671c0,0.515-2.542,2.599-5.706,4.94
	c-0.003-0.01-0.006-0.018-0.009-0.027c0,0.01,0.002,0.027,0,0.033c0.003-0.002,0.006-0.004,0.009-0.006
	c1.295,4.248,2.153,7.889,1.581,7.889c-0.549,0-3.509-1.833-6.862-4.113c-0.002,0-0.011,0.006-0.013,0.006
	c-0.003,0-0.02-0.01-0.023-0.01C7.627,19.664,4.673,21.5,4.125,21.5c-0.571,0,0.284-3.633,1.576-7.875
	c0.004,0.003,0.007,0.006,0.01,0.008c-0.002-0.008-0.002-0.019-0.003-0.027c-0.002,0.007-0.005,0.014-0.007,0.02
	C2.539,11.288,0,9.202,0,8.671c0-0.537,3.462-0.854,7.637-0.959C7.64,7.709,7.646,7.699,7.648,7.697
	c0.002-0.001,0.01-0.001,0.013-0.002C9.067,3.752,10.459,0.5,11,0.5s1.933,3.251,3.338,7.193c0.003,0.002,0.012,0.003,0.014,0.004
	c0.002,0.002,0.008,0.016,0.012,0.021C18.538,7.831,22,8.151,22,8.671z"/>
</svg>
