<?xml version="1.0" encoding="utf-8"?>
<!-- Generator: Adobe Illustrator 16.0.0, SVG Export Plug-In . SVG Version: 6.00 Build 0)  -->
<!DOCTYPE svg PUBLIC "-//W3C//DTD SVG 1.1//EN" "http://www.w3.org/Graphics/SVG/1.1/DTD/svg11.dtd">
<svg version="1.1" id="Слой_1" xmlns="http://www.w3.org/2000/svg" xmlns:xlink="http://www.w3.org/1999/xlink" x="0px" y="0px"
	 width="16px" height="16px" viewBox="0 0 16 16" enable-background="new 0 0 16 16" xml:space="preserve">
<g>
	<g>
		<path fill="#4599D3" d="M5.5,1h-1v2h1V1z M11.5,1h-1v2h1V1z M14.5,2h-2v2h-3V2h-3v2h-3V2h-2c-0.487,0-1,0.597-1,1v11
			c0,0.471,0.513,1,1,1h13c0.487,0,1-0.561,1-1V3C15.5,2.504,14.894,2,14.5,2z M4.5,13h-2v-2h2V13z M4.5,10h-2V8h2V10z M4.5,7h-2V5
			h2V7z M7.5,13h-2v-2h2V13z M7.5,10h-2V8h2V10z M7.5,7h-2V5h2V7z M10.5,13h-2v-2h2V13z M10.469,10H8.5V8h2L10.469,10z M10.5,7h-2V5
			h2V7z M13.5,13h-2v-2h2V13z M13.5,10h-2V8h2V10z M13.5,7h-2V5h2V7z"/>
	</g>
</g>
</svg>
