<?xml version="1.0" encoding="utf-8"?>
<!-- Generator: Adobe Illustrator 16.0.0, SVG Export Plug-In . SVG Version: 6.00 Build 0)  -->
<!DOCTYPE svg PUBLIC "-//W3C//DTD SVG 1.1//EN" "http://www.w3.org/Graphics/SVG/1.1/DTD/svg11.dtd">
<svg version="1.1" id="Слой_1" xmlns="http://www.w3.org/2000/svg" xmlns:xlink="http://www.w3.org/1999/xlink" x="0px" y="0px"
	 width="8.996px" height="8.998px" viewBox="0 0 8.996 8.998" enable-background="new 0 0 8.996 8.998" xml:space="preserve">
<path fill="#01A1EC" d="M8.996,4.499L0,0v8.998L8.996,4.499"/>
</svg>
