<?xml version="1.0" encoding="utf-8"?>
<!-- Generator: Adobe Illustrator 16.0.0, SVG Export Plug-In . SVG Version: 6.00 Build 0)  -->
<!DOCTYPE svg PUBLIC "-//W3C//DTD SVG 1.1//EN" "http://www.w3.org/Graphics/SVG/1.1/DTD/svg11.dtd">
<svg version="1.1" id="Слой_1" xmlns="http://www.w3.org/2000/svg" xmlns:xlink="http://www.w3.org/1999/xlink" x="0px" y="0px"
	 width="16px" height="16px" viewBox="0 0 16 16" enable-background="new 0 0 16 16" xml:space="preserve">
<g>
	<g>
		<path fill="#FFFFFF" d="M14.934,2.667H1.067C0.478,2.667,0,3.144,0,3.733v6.4C0,10.723,0.478,11.2,1.067,11.2h13.867
			c0.589,0,1.066-0.478,1.066-1.066v-6.4C16,3.144,15.522,2.667,14.934,2.667z M7.953,10.1c-1.764,0-3.197-1.435-3.197-3.202
			c0-1.768,1.433-3.203,3.197-3.203S11.15,5.13,11.15,6.897C11.15,8.665,9.717,10.1,7.953,10.1z M14.934,11.733H1.067
			C0.478,11.733,0,11.256,0,10.667V11.2c0,0.589,0.478,1.066,1.067,1.066h13.867c0.589,0,1.066-0.478,1.066-1.066v-0.533
			C16,11.256,15.522,11.733,14.934,11.733z M14.934,12.8H1.067C0.478,12.8,0,12.322,0,11.733v0.533c0,0.589,0.478,1.066,1.067,1.066
			h13.867c0.589,0,1.066-0.478,1.066-1.066v-0.533C16,12.322,15.522,12.8,14.934,12.8z M8.243,6.525
			C7.686,6.302,7.453,6.153,7.453,5.882c0-0.223,0.165-0.456,0.62-0.456c0.444,0,0.732,0.149,0.889,0.223l0.176-0.603
			C8.929,4.94,8.676,4.907,8.264,4.896V4.318H7.687v0.579c-0.66,0.117-1.039,0.515-1.039,1.077c0,0.61,0.445,0.924,1.133,1.172
			c0.481,0.179,0.711,0.369,0.711,0.661c0,0.314-0.281,0.519-0.692,0.519c-0.397,0-0.766-0.139-1.021-0.289L6.604,8.65
			c0.237,0.161,0.646,0.278,1.057,0.289l0.026,0.583h0.577V8.944c0.722-0.121,1.037-0.651,1.037-1.207
			C9.301,7.153,8.977,6.799,8.243,6.525z"/>
	</g>
</g>
</svg>
