<?xml version="1.0" encoding="utf-8"?>
<!-- Generator: Adobe Illustrator 16.0.0, SVG Export Plug-In . SVG Version: 6.00 Build 0)  -->
<!DOCTYPE svg PUBLIC "-//W3C//DTD SVG 1.1//EN" "http://www.w3.org/Graphics/SVG/1.1/DTD/svg11.dtd">
<svg version="1.1" id="Слой_1" xmlns="http://www.w3.org/2000/svg" xmlns:xlink="http://www.w3.org/1999/xlink" x="0px" y="0px"
	 width="16px" height="15.999px" viewBox="0 0 16 15.999" enable-background="new 0 0 16 15.999" xml:space="preserve">
<path fill-rule="evenodd" clip-rule="evenodd" fill="#FFFFFF" d="M4.805,0.689v5.957H1.657c-0.255,0-0.487,0.154-0.596,0.396
	C1.02,7.137,1,7.236,1,7.335C1,7.493,1.052,7.65,1.152,7.776l6.343,7.976C7.62,15.908,7.805,15.999,8,15.999
	c0.195,0,0.38-0.091,0.505-0.247l6.343-7.976c0.163-0.205,0.198-0.491,0.09-0.733c-0.107-0.242-0.34-0.396-0.596-0.396h-3.147V0.689
	C11.194,0.309,10.9,0,10.537,0H5.463C5.1,0,4.805,0.309,4.805,0.689z"/>
</svg>
