<?xml version="1.0" encoding="utf-8"?>
<!-- Generator: Adobe Illustrator 16.0.0, SVG Export Plug-In . SVG Version: 6.00 Build 0)  -->
<!DOCTYPE svg PUBLIC "-//W3C//DTD SVG 1.1//EN" "http://www.w3.org/Graphics/SVG/1.1/DTD/svg11.dtd">
<svg version="1.1" id="Слой_1" xmlns="http://www.w3.org/2000/svg" xmlns:xlink="http://www.w3.org/1999/xlink" x="0px" y="0px"
	 width="12px" height="12px" viewBox="0 0 12 12" enable-background="new 0 0 12 12" xml:space="preserve">
<path fill="#62C4F0" d="M10,4.999H9V3c0-1.473-1.152-3-2.991-3C4.172,0,3,1.526,3,3v2H2C1.54,4.999,1,5.631,1,6v5
	c0,0.368,0.54,1,1,1h8c0.458,0,1-0.632,1-1V6C11,5.631,10.458,4.999,10,4.999z M8,4.999H4V3c0-0.735,1.084-2,2-2s2,1.265,2,2V4.999z
	"/>
</svg>
