<?xml version="1.0" encoding="utf-8"?>
<!-- Generated by IcoMoon.io -->
<!DOCTYPE svg PUBLIC "-//W3C//DTD SVG 1.1//EN" "http://www.w3.org/Graphics/SVG/1.1/DTD/svg11.dtd">
<svg version="1.1" xmlns="http://www.w3.org/2000/svg" xmlns:xlink="http://www.w3.org/1999/xlink" width="6855" height="1024" viewBox="0 0 6855 1024">
<g id="icomoon-ignore">
</g>
	<path d="M713.236 475.444c35.92-46.243 53.951-99.063 53.951-158.458 0-101.679-36.203-177.549-108.608-227.54-72.405-49.92-184.125-74.951-334.946-74.951h-323.633v1009.505h235.459v-387.341h125.295l265.086 387.412h261.268c-50.627-66.325-159.518-212.903-326.602-439.877 65.83-26.233 116.74-62.506 152.73-108.75zM476.221 428.776c-35.425 22.627-90.365 33.869-164.821 33.869h-75.941v-272.723h71.416c75.941 0 132.013 10.182 168.215 30.405 36.203 20.293 54.304 54.375 54.304 102.174 0 48.294-17.748 83.79-53.173 106.275zM949.12 1024h235.459v-1009.505h-235.459v1009.505zM1858.006 178.185c40.516 0 81.81 6.717 123.811 19.94 42.072 13.364 83.86 28.99 125.295 46.95l75.941-174.014c-108.82-47.375-217.146-71.062-325.047-71.062-105.851 0-198.125 21.071-276.894 63.284-78.699 42.142-139.084 102.669-181.155 181.509-42.001 78.981-63.072 170.902-63.072 275.834 0 166.589 42.779 294.501 128.336 383.593s209.156 133.639 370.654 133.639c112.426 0 214.176-17.182 305.319-51.688v-179.529c-110.871 35.496-205.337 53.173-283.329 53.173-185.822 0-278.733-112.568-278.733-337.633 0-108.113 24.324-192.539 72.9-252.995 48.789-60.739 117.376-91.002 205.974-91.002zM2975.059 410.18h-439.807v-395.685h-235.459v1009.505h235.459v-435.706h439.807v435.706h234.681v-1009.505h-234.681v395.685zM4074.222 93.547c-70.143-52.678-172.458-79.052-307.228-79.052h-354.744v1009.505h235.53v-359.058h101.113c137.669 0 243.873-28.708 318.612-86.335 74.739-57.486 112.002-140.639 112.002-249.247-0.141-104.436-35.213-183.064-105.285-235.813zM3887.693 450.554c-35.92 26.021-90.083 39.031-162.559 39.031h-77.567v-299.662h107.265c64.203 0 111.437 11.95 141.629 35.92 30.122 23.97 45.324 61.021 45.324 111.154 0 49.708-18.101 87.537-54.092 113.558zM4563.524 10.323l-391.937 1013.677h253.702l80.537-240.267h404.947l80.537 240.267h253.702l-393.705-1013.677h-287.783zM4565.009 604.204c78.981-232.489 126.851-378.149 143.467-437.12 4.172 16.546 10.748 39.172 20.152 67.668 9.404 28.566 51.334 151.74 125.649 369.452h-289.268zM5884.005 14.495l-231.57 415.695-230.227-415.695h-255.187l368.462 623.507v385.997h234.045v-392.856l368.32-616.648h-253.843zM6797.417 576.91c-38.395-45.324-109.527-90.578-213.398-135.69-78.416-34.011-128.194-57.627-149.266-70.779-21-13.222-36.344-26.657-45.89-40.728-9.616-14-14.425-30.475-14.425-49.355 0-30.405 11.879-54.94 35.708-73.89 23.829-18.879 57.981-28.213 102.527-28.213 37.475 0 75.517 4.384 114.336 13.152 38.678 8.768 87.678 24.182 146.932 46.243l75.941-166.448c-57.274-22.485-112.002-39.95-164.468-52.395-52.324-12.586-107.477-18.808-165.175-18.808-117.517 0-209.509 25.526-276.046 76.648-66.537 51.193-99.911 121.336-99.911 210.641 0 47.445 10.182 88.881 30.475 124.305 20.152 35.425 47.375 66.537 81.173 93.194 33.94 26.728 84.779 54.516 152.589 83.577 72.476 31.324 120.417 54.163 144.033 68.375 23.475 14.283 41.294 29.132 53.526 44.546 12.162 15.414 18.243 33.092 18.243 52.819 0 35.496-13.717 62.153-41.364 80.113s-67.244 27.011-118.932 27.011c-42.991 0-90.436-6.293-142.478-18.738s-115.326-33.869-190.206-64.203v198.903c91.143 40.516 195.933 60.739 314.441 60.739 128.548 0 228.883-26.233 301.218-78.699 72.123-52.466 108.113-124.305 108.113-215.449 0.071-65.9-19.162-121.477-57.698-166.872z"></path>
</svg>
