<?xml version="1.0" encoding="utf-8"?>
<!-- Generator: Adobe Illustrator 16.0.0, SVG Export Plug-In . SVG Version: 6.00 Build 0)  -->
<!DOCTYPE svg PUBLIC "-//W3C//DTD SVG 1.1//EN" "http://www.w3.org/Graphics/SVG/1.1/DTD/svg11.dtd">
<svg version="1.1" id="Слой_1" xmlns="http://www.w3.org/2000/svg" xmlns:xlink="http://www.w3.org/1999/xlink" x="0px" y="0px"
	 width="16px" height="16px" viewBox="0 0 16 16" enable-background="new 0 0 16 16" xml:space="preserve">
<g>
	<path fill="#1EABEC" d="M15.824,13.527L10.307,8.01l4.084-4.083l1.446-1.445C15.932,2.632,16,2.802,16,2.994v10
		C16,13.193,15.926,13.371,15.824,13.527z M14.036,3.572l-1.862,1.863L8.609,8.999L7.984,9.625l-6.02-6.021l-1-1.001l-0.46-0.459
		C0.652,2.058,0.815,1.994,1,1.994h14c0.176,0,0.333,0.058,0.479,0.138l-0.504,0.503L14.036,3.572z M0.609,2.958l5.037,5.036
		L0.15,13.49C0.063,13.342,0,13.18,0,12.994v-10C0,2.81,0.063,2.646,0.15,2.498L0.609,2.958L0.609,2.958z M6,8.348l0.211,0.21
		l0.075,0.073L6.974,9.32l1,1l0.042-0.041l0.011,0.01l0.938-0.938l0.989-0.99l5.506,5.506c-0.14,0.073-0.291,0.125-0.459,0.125H1
		c-0.185,0-0.348-0.063-0.496-0.15L6,8.348z"/>
</g>
</svg>
