<?xml version="1.0" encoding="utf-8"?>
<!-- Generator: Adobe Illustrator 16.0.0, SVG Export Plug-In . SVG Version: 6.00 Build 0)  -->
<!DOCTYPE svg PUBLIC "-//W3C//DTD SVG 1.1//EN" "http://www.w3.org/Graphics/SVG/1.1/DTD/svg11.dtd">
<svg version="1.1" id="Слой_1" xmlns="http://www.w3.org/2000/svg" xmlns:xlink="http://www.w3.org/1999/xlink" x="0px" y="0px"
	 width="16px" height="16px" viewBox="0 0 16 16" enable-background="new 0 0 16 16" xml:space="preserve">
<path fill="#FFFFFF" d="M15.777,2.577l-2.356-2.355c-0.295-0.295-0.774-0.295-1.069,0l-2.131,2.133l-8.235,8.234
	c-0.068,0.068-0.123,0.149-0.162,0.237L-0.001,16l5.175-1.825c0.087-0.036,0.168-0.093,0.236-0.159l8.234-8.237l2.133-2.13
	C16.073,3.351,16.073,2.871,15.777,2.577z M4.266,13.866l-2.133-2.134l6.4-6.4l2.134,2.133L4.266,13.866z M11.732,6.399L9.602,4.265
	l2.133-2.134l2.134,2.134L11.732,6.399z"/>
</svg>
