<?xml version="1.0" encoding="utf-8"?>
<!-- Generator: Adobe Illustrator 16.0.0, SVG Export Plug-In . SVG Version: 6.00 Build 0)  -->
<!DOCTYPE svg PUBLIC "-//W3C//DTD SVG 1.1//EN" "http://www.w3.org/Graphics/SVG/1.1/DTD/svg11.dtd">
<svg version="1.1" id="Слой_1" xmlns="http://www.w3.org/2000/svg" xmlns:xlink="http://www.w3.org/1999/xlink" x="0px" y="0px"
	 width="24px" height="24px" viewBox="0 0 24 24" enable-background="new 0 0 24 24" xml:space="preserve">
<path fill="#436274" d="M18.246,22.986c-0.382,0-0.76-0.121-1.079-0.355l-5.22-3.85l-5.221,3.85c-0.322,0.234-0.7,0.355-1.08,0.355
	c-0.374,0-0.748-0.117-1.066-0.35c-0.642-0.463-0.908-1.287-0.656-2.039l2.02-6.604l-5-3c-0.645-0.461-1.244-1.248-1-2
	c0.243-0.748,1.213-1,2-1c0.004,0-0.004,0,0,0h6l2-6C10.181,1.241,11.154,0,11.945,0s1.762,1.241,1.998,1.994l2,6h6
	c0.004,0-0.848,0,0,0c0.783,0,1.762,0.252,2,1c0.246,0.753-0.354,1.539-1,2l-5,3l2.027,6.604c0.248,0.75-0.018,1.574-0.654,2.039
	C18.998,22.869,18.619,22.986,18.246,22.986L18.246,22.986z"/>
</svg>
