<?xml version="1.0" encoding="utf-8"?>
<!-- Generator: Adobe Illustrator 16.0.0, SVG Export Plug-In . SVG Version: 6.00 Build 0)  -->
<!DOCTYPE svg PUBLIC "-//W3C//DTD SVG 1.1//EN" "http://www.w3.org/Graphics/SVG/1.1/DTD/svg11.dtd">
<svg version="1.1" id="Слой_1" xmlns="http://www.w3.org/2000/svg" xmlns:xlink="http://www.w3.org/1999/xlink" x="0px" y="0px"
	 width="15px" height="15px" viewBox="0 0 15 15" enable-background="new 0 0 15 15" xml:space="preserve">
<g>
	<path fill="#FFFFFF" d="M7,10.5h1v1H7V10.5z"/>
	<path fill="#FFFFFF" d="M5,6.5c0.03-1.447,0.976-2,2.47-2C9.38,4.5,10,5.684,10,6.452C10,8.385,8.173,8.275,8,9.5l0,0H7l0,0
		c0.143-1.75,2.029-1.907,2-3C8.999,5.85,8.012,5.574,7.451,5.514C5.792,5.332,5.947,6.752,6,7.5H5V6.5z"/>
</g>
</svg>
