<?xml version="1.0" encoding="utf-8"?>
<!-- Generator: Adobe Illustrator 16.0.0, SVG Export Plug-In . SVG Version: 6.00 Build 0)  -->
<!DOCTYPE svg PUBLIC "-//W3C//DTD SVG 1.1//EN" "http://www.w3.org/Graphics/SVG/1.1/DTD/svg11.dtd">
<svg version="1.1" id="Слой_1" xmlns="http://www.w3.org/2000/svg" xmlns:xlink="http://www.w3.org/1999/xlink" x="0px" y="0px"
	 width="16px" height="16px" viewBox="0 0 16 16" enable-background="new 0 0 16 16" xml:space="preserve">
<g>
	<g>
		<path fill="#DADADA" d="M8,0.5C3.858,0.5,0.5,3.858,0.5,8c0,4.143,3.358,7.5,7.5,7.5c4.143,0,7.5-3.357,7.5-7.5
			C15.5,3.858,12.143,0.5,8,0.5z M9.086,11.5H8.22L5.139,6.613L5.113,6.622V11.5H4.247V5.102h0.866l3.081,4.883l0.026-0.01V5.102
			h0.866V11.5z M12.592,10.168H10V9.492h2.592V10.168z M12.843,7.013c0,0.437-0.138,0.791-0.411,1.062s-0.641,0.406-1.101,0.406
			c-0.463,0-0.833-0.135-1.11-0.406C9.944,7.804,9.807,7.45,9.807,7.013V6.499c0-0.434,0.137-0.787,0.412-1.062
			c0.275-0.273,0.644-0.411,1.104-0.411c0.463,0,0.832,0.137,1.107,0.411c0.275,0.274,0.413,0.628,0.413,1.062V7.013z M11.322,5.66
			c-0.246,0-0.434,0.079-0.563,0.235s-0.193,0.358-0.193,0.604v0.514c0,0.258,0.064,0.463,0.193,0.618
			c0.129,0.153,0.319,0.23,0.571,0.23c0.243,0,0.43-0.078,0.561-0.233c0.13-0.155,0.195-0.36,0.195-0.615V6.499
			c0-0.246-0.065-0.447-0.198-0.604C11.758,5.738,11.568,5.66,11.322,5.66z"/>
	</g>
</g>
</svg>
