<?xml version="1.0" encoding="utf-8"?>
<!-- Generator: Adobe Illustrator 16.0.0, SVG Export Plug-In . SVG Version: 6.00 Build 0)  -->
<!DOCTYPE svg PUBLIC "-//W3C//DTD SVG 1.1//EN" "http://www.w3.org/Graphics/SVG/1.1/DTD/svg11.dtd">
<svg version="1.1" id="Слой_1" xmlns="http://www.w3.org/2000/svg" xmlns:xlink="http://www.w3.org/1999/xlink" x="0px" y="0px"
	 width="16px" height="16px" viewBox="0 0 16 16" enable-background="new 0 0 16 16" xml:space="preserve">
<g>
	<g>
		<path fill="#01A1EC" d="M13.25,10.667c0,0-2.65-1.188-5.25-1.188c-2.414,0-5.25,1.188-5.25,1.188L1,15.407C1,15.407,4.484,16,8,16
			c3.484,0,7-0.594,7-0.594L13.25,10.667z M8,8.295c2.5,0,4.083-2.539,4.083-3.555c0-0.252,0.039-0.945,0-1.186
			C11.758,1.521,9.977,0,8,0C5.996,0,4.21,1.481,3.917,3.555c-0.031,0.215,0,0.962,0,1.186C3.917,5.757,5.5,8.295,8,8.295z"/>
	</g>
</g>
</svg>
